{
    "0": [
        "tendonitis",
        "sprain",
        "bursitis",
        "tendinitis",
        "sprained",
        "contusion",
        "concussion"
    ],
    "1": [
        "back",
        "also",
        "form",
        "even",
        "along",
        "either",
        "without",
        "instead",
        "whether",
        "possibly",
        "position",
        "amongst",
        "never",
        "soon",
        "around",
        "extent",
        "particular",
        "finally",
        "partially",
        "immediately",
        "later",
        "although",
        "previously",
        "long",
        "sign",
        "suddenly",
        "away",
        "others",
        "outside",
        "toward",
        "short",
        "however",
        "significantly",
        "rest",
        "close",
        "though",
        "early",
        "yet",
        "middle",
        "another",
        "via",
        "still",
        "appear",
        "direction",
        "beyond",
        "gradually",
        "rather",
        "amount",
        "furthermore",
        "additionally",
        "therefore",
        "alone",
        "fact",
        "path",
        "simply",
        "force",
        "entire",
        "perhaps",
        "except",
        "progressively",
        "initially",
        "late",
        "consequently",
        "thereby",
        "directly",
        "actually",
        "hence",
        "future",
        "eventually",
        "leaving",
        "spontaneously",
        "instantly",
        "course",
        "onto",
        "whereby",
        "besides",
        "across",
        "attention",
        "instance",
        "likelihood",
        "thus",
        "portion",
        "clearly",
        "moreover",
        "specifically",
        "whilst",
        "recently",
        "shortly",
        "unless",
        "potentially",
        "apart",
        "reappear",
        "whenever"
    ],
    "2": [
        "range",
        "load",
        "energy",
        "fiber",
        "capacity",
        "loads",
        "external",
        "traction",
        "power",
        "highspeed",
        "static",
        "peripheral",
        "system",
        "performance",
        "unit",
        "focal",
        "precision",
        "control",
        "mechanics",
        "testing",
        "differential",
        "combination",
        "parts",
        "units",
        "quantity",
        "medium",
        "standard",
        "simultaneous"
    ],
    "3": [
        "extending",
        "expanding",
        "extension",
        "extend",
        "extended",
        "narrowing",
        "strengthen",
        "broad",
        "wider",
        "broader",
        "extends"
    ],
    "4": [
        "differ",
        "unclear",
        "depending",
        "depend",
        "subjective",
        "dependent",
        "outnumbers",
        "varying",
        "vary",
        "depends",
        "correlated",
        "exceeds",
        "exact",
        "determine",
        "regardless",
        "variables",
        "ranges",
        "unknown"
    ],
    "5": [
        "injuries",
        "fractures",
        "bruising",
        "injured",
        "burns",
        "bleeding",
        "contusions",
        "bruise"
    ],
    "6": [
        "forceful",
        "passive",
        "insult",
        "contrary",
        "blunt",
        "stance",
        "plain",
        "provocation",
        "regard",
        "predisposed",
        "conservative",
        "tolerated",
        "supine",
        "opinion",
        "frank",
        "slap",
        "act"
    ],
    "7": [
        "cohort",
        "morbidity",
        "nonoperative",
        "ischemia",
        "reperfusion",
        "erythema",
        "endpoints",
        "subgroups",
        "exacerbation",
        "clinically",
        "intramuscular",
        "hypotension",
        "corticosteroid",
        "subcutaneous",
        "dyspnea",
        "comorbidities"
    ],
    "8": [
        "slips",
        "breaks",
        "awakens",
        "becomes",
        "drops",
        "worsens",
        "sleeps",
        "sits",
        "travels",
        "progresses",
        "gets",
        "falls",
        "withstands",
        "leads",
        "develops",
        "retracts",
        "intensifies",
        "moves",
        "takes",
        "ceases",
        "rotates",
        "begins",
        "rolls",
        "goes",
        "limps",
        "fails",
        "severs",
        "resolves"
    ],
    "9": [
        "especially",
        "comparison",
        "relatively",
        "completely",
        "extremely",
        "particularly",
        "become",
        "statistically",
        "classically",
        "sadly",
        "slightly",
        "chronically",
        "remains",
        "historically",
        "superficially",
        "hyper",
        "truly",
        "became",
        "highly"
    ],
    "10": [
        "injury",
        "swollen",
        "ruptured",
        "swelling",
        "ailment",
        "shoulder",
        "fracture",
        "rehabiliation",
        "fractured",
        "hip",
        "reinjury",
        "tightness",
        "rehabilitation",
        "hyperextension",
        "dislocated",
        "inactive",
        "spasm",
        "sore",
        "chondromalacia",
        "sciatic",
        "toe",
        "sprains",
        "healed",
        "recovering",
        "trapezius",
        "syndesmosis",
        "arthroscopy"
    ],
    "11": [
        "fully",
        "externally",
        "manner",
        "well",
        "appropriately",
        "quickly",
        "rapidly",
        "actively",
        "forcefully",
        "easily",
        "poorly",
        "internally",
        "promptly",
        "strongly",
        "adequately",
        "properly"
    ],
    "12": [
        "presents",
        "refers",
        "engages",
        "makes",
        "accompanies",
        "involves",
        "implies",
        "radiates",
        "defines",
        "differentiates",
        "corresponds",
        "includes",
        "focuses",
        "encompasses",
        "derives",
        "identifies",
        "resembles",
        "consists",
        "gives",
        "handles",
        "exists",
        "serves",
        "contains",
        "reproduces",
        "translates",
        "ensures",
        "attaches",
        "emphasizes",
        "instructs",
        "describes",
        "localizes",
        "represents",
        "implicates"
    ],
    "13": [
        "tissue",
        "inflammation",
        "inflammatory",
        "tissues",
        "pathogenesis",
        "fibrosis",
        "resorption",
        "collagen",
        "pathophysiology",
        "cells",
        "membrane",
        "modulate",
        "immune",
        "fibrotic",
        "neurogenic",
        "tumor"
    ],
    "14": [
        "structure",
        "structures",
        "stairs",
        "downstairs",
        "electricians",
        "wall",
        "stair",
        "carpenters",
        "room",
        "walls"
    ],
    "15": [
        "twisting",
        "tears",
        "squatting",
        "fingers",
        "grasping",
        "bend",
        "belly",
        "palm",
        "bending",
        "bent",
        "cupped",
        "kneeling",
        "squat",
        "knees",
        "hands",
        "limp",
        "barefoot",
        "toes",
        "contorted",
        "fist",
        "outstretched",
        "feet",
        "shoulders",
        "arms",
        "headfirst"
    ],
    "16": [
        "show",
        "page",
        "events",
        "special",
        "activities",
        "presentation",
        "begin",
        "program",
        "presentations",
        "attended",
        "open",
        "participate",
        "event",
        "feature",
        "participation",
        "conjunction"
    ],
    "17": [
        "felt",
        "moment",
        "person",
        "difference",
        "way",
        "see",
        "type",
        "mean",
        "someone",
        "things",
        "go",
        "liked",
        "get",
        "little",
        "like",
        "us",
        "whole",
        "anymore",
        "thought",
        "look",
        "happening",
        "always",
        "hard",
        "lot",
        "much",
        "bit",
        "done",
        "obviously",
        "hear",
        "happens",
        "feel",
        "together",
        "something",
        "right",
        "folks",
        "sit",
        "ask",
        "feels",
        "mind",
        "respect",
        "lie"
    ],
    "18": [
        "correct",
        "sensitive",
        "appropriate",
        "possible",
        "prevalent",
        "important",
        "require",
        "true",
        "satisfactory",
        "difficult",
        "active",
        "reliable",
        "essential",
        "susceptible",
        "means",
        "necessary",
        "effective",
        "beneficial",
        "optimal",
        "problematic",
        "quick",
        "consistent",
        "accurate",
        "helpful",
        "choice",
        "imperative",
        "thorough",
        "key",
        "sufficient",
        "proper",
        "painless",
        "ideal",
        "careful",
        "simple",
        "adequate",
        "practical",
        "alternative",
        "healthy",
        "responsible",
        "impossible",
        "permanent",
        "relevant",
        "balanced",
        "objective",
        "capable",
        "useful"
    ],
    "19": [
        "dorsiflexion",
        "flexion",
        "plantar",
        "stiffness",
        "forefoot",
        "weightbearing",
        "deformity",
        "adduction",
        "scapular",
        "lateral",
        "musculoskeletal",
        "eversion",
        "biomechanical",
        "varus",
        "valgus",
        "subluxation",
        "palpation",
        "supination",
        "pronation",
        "gait",
        "lumbar",
        "flexors",
        "biomechanics",
        "compressive",
        "postural",
        "malalignment",
        "navicular",
        "proprioceptive"
    ],
    "20": [
        "strength",
        "hallmark",
        "worst",
        "biggest",
        "sole",
        "best",
        "eminence",
        "foremost",
        "weakest",
        "great",
        "arguably",
        "dominant",
        "excellent",
        "prominent",
        "leading",
        "accomplished",
        "elite",
        "distinctive",
        "prominence",
        "prominently",
        "popular",
        "top",
        "largest",
        "world",
        "greatest"
    ],
    "21": [],
    "22": [],
    "23": [
        "iii",
        "vi",
        "iv",
        "ii",
        "vii",
        "impairments",
        "impairment",
        "arising",
        "relating",
        "adverse"
    ],
    "24": [
        "test",
        "grade",
        "tests",
        "grades",
        "degree",
        "secondary",
        "students",
        "examination",
        "degrees",
        "exam",
        "graded",
        "examinations"
    ],
    "25": [
        "weeks",
        "three",
        "beginning",
        "least",
        "complete",
        "one",
        "stages",
        "morning",
        "within",
        "including",
        "per",
        "year",
        "six",
        "previous",
        "times",
        "initial",
        "time",
        "periods",
        "hours",
        "half",
        "combined",
        "first",
        "recent",
        "period",
        "past",
        "full",
        "years",
        "four",
        "nearly",
        "annually",
        "approximately",
        "days",
        "two",
        "duration",
        "phase",
        "worth",
        "since",
        "mid",
        "end",
        "upwards",
        "exceeding",
        "phases",
        "count",
        "total",
        "months",
        "almost",
        "prior",
        "month",
        "next",
        "remaining",
        "currently",
        "start",
        "consecutive",
        "last",
        "respectively"
    ],
    "26": [
        "chronic",
        "degenerative",
        "disorders",
        "osteoarthritis",
        "diagnosis",
        "complications",
        "abnormality",
        "syndrome",
        "neurological",
        "etiologies",
        "pathologies",
        "subacute",
        "depression",
        "prognosis",
        "atrophy",
        "neuropathy",
        "neuropathies",
        "disorder",
        "diagnosed",
        "tenosynovitis",
        "degeneration",
        "nontraumatic",
        "misdiagnosed",
        "sufferers",
        "congenital",
        "myositis",
        "diagnose",
        "arthritis",
        "diabetes",
        "gout",
        "rheumatoid",
        "predispose",
        "lifethreatening",
        "untreated",
        "hyperparathyroidism",
        "spondylitis",
        "respiratory",
        "polymyalgia",
        "abnormalities"
    ],
    "27": [
        "foot",
        "chair",
        "hole",
        "body",
        "side",
        "stiff",
        "upper",
        "sporting",
        "head",
        "hand",
        "touch",
        "burning",
        "bear",
        "bottom",
        "tiny",
        "grip",
        "signs",
        "narrow",
        "resembling",
        "shape",
        "pictures",
        "front",
        "bearing",
        "medius",
        "bull",
        "underneath",
        "cross",
        "picture",
        "piece",
        "hammer",
        "inside",
        "soft",
        "distance",
        "loose",
        "bodies",
        "old",
        "edge",
        "beneath",
        "ground",
        "anchor",
        "face"
    ],
    "28": [
        "tendinopathy",
        "insertional",
        "tendinosis",
        "acromioclavicular",
        "dislocation",
        "structural",
        "skeletal",
        "tibiofibular",
        "osteochondral",
        "talar",
        "subchondral",
        "intraarticular",
        "peroneal",
        "crepitus",
        "plica",
        "xray",
        "fragment",
        "postinjury",
        "iliopsoas",
        "trochanteric",
        "ischial",
        "subacromial",
        "fasciitis",
        "tuberosity",
        "anatomy",
        "interosseous",
        "longus",
        "reconstructions",
        "trochanter",
        "gluteal",
        "limb",
        "myofascial",
        "rectus",
        "semitendinosus",
        "healing",
        "infraspinatus",
        "extensors",
        "ecchymosis",
        "avulsed",
        "rotatory",
        "anteromedial",
        "genu",
        "epicondylitis",
        "spondylolysis",
        "paraspinal",
        "condyle",
        "osteochondrosis",
        "pubis",
        "calcific",
        "microtrauma",
        "gracilis",
        "confluent",
        "piriformis",
        "neuritis",
        "radicular",
        "tibiofemoral",
        "nuchal",
        "coracoid",
        "subtalar",
        "tympanic",
        "sacroiliac",
        "pyogenic",
        "ilium",
        "nonunions",
        "levator",
        "epiphysis",
        "physis",
        "plexus",
        "inferiorly",
        "hypermobility",
        "diaphysis",
        "diaphyseal",
        "fibrocartilage",
        "lunate"
    ],
    "29": [
        "gap",
        "lack",
        "disorganization",
        "failure",
        "defect",
        "defects",
        "deficit",
        "insufficiency",
        "dysfunction",
        "deviation",
        "absence",
        "deficits",
        "asymmetry",
        "imbalances",
        "imbalance",
        "discrepancy",
        "deviations",
        "amnesia",
        "instabilities",
        "systemic",
        "deficiencies"
    ],
    "30": [
        "proposed",
        "case",
        "classification",
        "motion",
        "entity",
        "motions",
        "measure",
        "notice",
        "guidelines",
        "criteria",
        "contract",
        "terms",
        "assessment",
        "review",
        "retraction",
        "limits",
        "states",
        "modifications",
        "representation",
        "threshold",
        "application",
        "permitting",
        "evidence",
        "preexisting",
        "exempt",
        "expiration",
        "delay",
        "unclassified",
        "therefor",
        "contracts",
        "variance",
        "hearing"
    ],
    "31": [
        "ac",
        "pes",
        "cts",
        "oa",
        "ct",
        "mo",
        "pa",
        "c",
        "l"
    ],
    "32": [
        "tendon",
        "achilles",
        "ankle",
        "calf",
        "ligaments",
        "ligament",
        "cartilage",
        "knee",
        "cruciate",
        "patella",
        "quadriceps",
        "metatarsal",
        "elbow",
        "meniscus",
        "groin",
        "adductor",
        "hamstring",
        "labrum",
        "quadricep",
        "kneecap",
        "fibula",
        "shin"
    ],
    "33": [
        "forward",
        "stretch",
        "lead",
        "finish",
        "play",
        "tilt",
        "team",
        "night",
        "final",
        "players",
        "league",
        "overtime",
        "assists",
        "playing",
        "point",
        "points",
        "tight",
        "plays",
        "runs",
        "missed",
        "straight",
        "competition",
        "minutes",
        "field",
        "cushion",
        "turf"
    ],
    "34": [
        "sound",
        "sensation",
        "cold",
        "feeling",
        "sleeping",
        "throbbing",
        "aching",
        "bite",
        "sleep",
        "bed",
        "ache",
        "waking",
        "noise",
        "warm",
        "breathing",
        "clammy",
        "breathe",
        "breath",
        "watching"
    ],
    "35": [
        "rupture",
        "disruption",
        "interruption",
        "damage",
        "ruptures",
        "overload",
        "incident",
        "overloads",
        "collapse",
        "disturbances",
        "overloading",
        "explosion",
        "occurrence",
        "delays",
        "closure",
        "assaults",
        "collisions",
        "disturbance",
        "accidents"
    ],
    "36": [
        "pathology",
        "patients",
        "patient",
        "surgical",
        "trauma",
        "clinical",
        "neurovascular",
        "treatment",
        "nonsurgical",
        "therapy",
        "diagnostic",
        "surgeries",
        "procedure",
        "imaging",
        "clinicians",
        "medicine",
        "therapist",
        "physician",
        "surgery",
        "diagnoses",
        "medical",
        "diagnosing",
        "clinician",
        "physicians",
        "cardiac",
        "cardiopulmonary"
    ],
    "37": [
        "pivoting",
        "pedal",
        "rotator",
        "radial",
        "steering",
        "compartment",
        "compartments",
        "tensile",
        "mechanical",
        "stabilizer",
        "pulley",
        "rotary",
        "rotational",
        "mechanically",
        "stabilizers",
        "vibration",
        "directional",
        "pulleys",
        "rotators"
    ],
    "38": [
        "persons",
        "weavers",
        "cricket"
    ],
    "39": [
        "occurs",
        "allows",
        "spurs",
        "affects",
        "interferes",
        "creates",
        "aggravates",
        "helps",
        "exposes",
        "eases"
    ],
    "40": [
        "aggravated",
        "complaint",
        "obstruction",
        "suspected",
        "implicated",
        "suspicion",
        "counts",
        "inciting",
        "investigation"
    ],
    "41": [
        "nervous",
        "complain",
        "irritated",
        "stunned",
        "complaining",
        "confused",
        "disturbed"
    ],
    "42": [
        "affected",
        "elevated",
        "intact",
        "displaced",
        "reduced",
        "unaffected",
        "slowed",
        "damaged",
        "restricted",
        "delayed",
        "weakened",
        "intensified",
        "changed",
        "impinged",
        "frayed",
        "accelerated",
        "altered",
        "worsened",
        "stripped",
        "deteriorated",
        "strained",
        "hampering",
        "inflamed",
        "interrupted",
        "disrupted",
        "loosened",
        "averted"
    ],
    "43": [
        "thompson",
        "european",
        "b",
        "australian",
        "japan",
        "mot",
        "seperation",
        "cant",
        "theyre",
        "etc",
        "os",
        "thats",
        "arent"
    ],
    "44": [
        "car",
        "vehicle"
    ],
    "45": [
        "overburdened",
        "unstable",
        "inferior",
        "repetitive",
        "irregular",
        "vague",
        "unnecessary",
        "isolated",
        "improper",
        "unspecific",
        "deficient",
        "insufficient",
        "inappropriate",
        "incomplete",
        "misleading",
        "uneven",
        "unnatural",
        "slow",
        "faulty",
        "inadequate",
        "restrictive",
        "overloaded",
        "poor",
        "ambiguous",
        "absent",
        "immature",
        "haphazard"
    ],
    "46": [],
    "47": [
        "made",
        "available",
        "include",
        "found",
        "detected",
        "held",
        "known",
        "used",
        "contained",
        "involved",
        "included",
        "considered",
        "accepted",
        "exposed",
        "subdivided",
        "rotated",
        "filled",
        "referred",
        "identified",
        "modified",
        "called",
        "presented",
        "seen",
        "published",
        "applied",
        "defined",
        "consist",
        "identical",
        "documented",
        "recognized",
        "attached",
        "classified",
        "remembered",
        "covered",
        "produced",
        "subjected",
        "named",
        "given",
        "separated",
        "loaded",
        "removed",
        "anchored",
        "performed",
        "containing",
        "treated",
        "taken",
        "operated",
        "drawn",
        "developed",
        "overlooked",
        "coined",
        "originating",
        "established",
        "listed",
        "distributed",
        "resemble",
        "utilized",
        "placed"
    ],
    "48": [
        "fibrous",
        "cutaneous",
        "lesion",
        "lesions",
        "ischaemia",
        "necrosis",
        "abnormal",
        "edema",
        "pathologic",
        "inguinal",
        "synovial",
        "axillary",
        "bowel",
        "calcification",
        "posttraumatic",
        "psoriatic",
        "arthropathy",
        "vascular",
        "synovium",
        "hypertrophic",
        "hemoptysis",
        "venous",
        "brachial"
    ],
    "49": [
        "detrimental",
        "cause",
        "tolerate",
        "involve",
        "occur",
        "provoke",
        "reduce",
        "spur",
        "precipitate",
        "worsen",
        "suffer",
        "aggravate",
        "destabilize",
        "exacerbate",
        "arise",
        "affecting",
        "affect",
        "lessen",
        "impinge",
        "prevent",
        "constitute"
    ],
    "50": [
        "causes",
        "physical",
        "cases",
        "overuse",
        "severe",
        "mri",
        "paraesthesia",
        "mild",
        "episodes",
        "dissecans",
        "associated",
        "recurrent",
        "acute",
        "onset",
        "condition",
        "prevention",
        "prolonged",
        "exertional",
        "blood",
        "suffering",
        "moderate",
        "normal",
        "experienced",
        "severity",
        "osteochondritis",
        "undergo",
        "itis",
        "postconcussion",
        "confusional",
        "exposure",
        "ankylosing",
        "health",
        "painfree",
        "inactivity",
        "lumbago",
        "psychological"
    ],
    "51": [
        "stabbed",
        "suspect",
        "abduction",
        "dead",
        "abductor",
        "missing",
        "abductors",
        "knife",
        "stab",
        "stabbing",
        "abducted"
    ],
    "52": [
        "articles"
    ],
    "53": [
        "tenderness",
        "classic",
        "clumsiness",
        "primal",
        "episodic",
        "intensity",
        "warmth",
        "spontaneous",
        "hypochondriacal",
        "inner",
        "impulses",
        "pallor",
        "fullness",
        "heaviness"
    ],
    "54": [
        "violent",
        "latently",
        "displacement",
        "instability",
        "movement",
        "insidious",
        "intractable",
        "proliferation",
        "overstretch",
        "movements",
        "interventions",
        "avoidance",
        "exerted",
        "intervention",
        "influence",
        "united",
        "fragmentation",
        "phenomenon",
        "mass",
        "derangement",
        "tolerance",
        "functioning",
        "aggression",
        "progressive",
        "persisting",
        "root",
        "intolerance",
        "reality",
        "inflexibilities",
        "infiltration",
        "spiral"
    ],
    "55": [
        "may",
        "inability",
        "deciding",
        "required",
        "ability",
        "able",
        "might",
        "likely",
        "order",
        "need",
        "managed",
        "could",
        "meant",
        "prefer",
        "continued",
        "would",
        "failed",
        "must",
        "try",
        "forced",
        "help",
        "unable",
        "tends",
        "looking",
        "effort",
        "attempting",
        "advised",
        "enough",
        "expected",
        "chance",
        "allow",
        "attempts",
        "determined"
    ],
    "56": [
        "pain",
        "symptoms",
        "tingling",
        "numbness",
        "paresthesias",
        "cramping",
        "paresthesia",
        "symptom",
        "sensations",
        "contractions",
        "sciatica",
        "headaches",
        "dizziness",
        "vertigo",
        "vomiting",
        "fever",
        "fatigue",
        "achy",
        "fevers",
        "sinus",
        "shortness"
    ],
    "57": [
        "elevation",
        "skiing",
        "hill",
        "traversing",
        "bicycling",
        "cycling",
        "ridge",
        "ascent",
        "climbers",
        "rockclimbing",
        "skiers",
        "plateau",
        "ascending"
    ],
    "58": [
        "rotation",
        "baseball",
        "pitchers",
        "pitching",
        "pitch",
        "pinch",
        "hitter"
    ],
    "59": [
        "situated",
        "area",
        "sites",
        "areas",
        "region",
        "location",
        "junction",
        "located",
        "zone",
        "relocation",
        "near",
        "miles",
        "border",
        "intersection",
        "junctions",
        "site",
        "locations",
        "places",
        "store",
        "adjacent",
        "reconstruction",
        "branches",
        "crossing",
        "routes",
        "road",
        "directions"
    ],
    "60": [
        "commonly",
        "often",
        "usually",
        "mostly",
        "frequently",
        "generally",
        "tend",
        "among",
        "similar",
        "various",
        "types",
        "unlike",
        "numerous",
        "typically",
        "sometimes",
        "many",
        "proportion",
        "intermittent",
        "normally",
        "prone",
        "number",
        "different",
        "typical",
        "traditionally",
        "occasionally",
        "rarely",
        "instances",
        "uncommon",
        "mainly",
        "infrequently",
        "multiple",
        "majority",
        "variety",
        "widely",
        "usual",
        "notably",
        "predominantly",
        "primarily",
        "traditional",
        "regularly",
        "ranging",
        "individual",
        "frequent",
        "several",
        "ones",
        "throughout"
    ],
    "61": [
        "strong",
        "indirect",
        "main",
        "positive",
        "sharp",
        "excessive",
        "immediate",
        "significant",
        "relative",
        "direct",
        "greater",
        "additional",
        "limited",
        "small",
        "large",
        "partial",
        "minimal",
        "widespread",
        "high",
        "longterm",
        "visible",
        "palpable",
        "constant",
        "substantial",
        "low",
        "measurable",
        "considerable",
        "increasing",
        "rapid",
        "overall",
        "concomitant",
        "continuous",
        "potential",
        "major",
        "persistent",
        "actual",
        "sustained",
        "extra",
        "lasting",
        "cumulative",
        "magnitude",
        "obvious",
        "apparent",
        "massive",
        "serious",
        "negligible",
        "resultant",
        "natural",
        "minor",
        "minimized",
        "excess",
        "slight",
        "vigorous",
        "heavy",
        "big"
    ],
    "62": [
        "measurement",
        "velocity",
        "surface",
        "overlying",
        "inversion",
        "absorption",
        "density",
        "variability",
        "radii",
        "variable",
        "tensor",
        "microscopic",
        "fibers",
        "layers",
        "thickness",
        "cavity",
        "geometry",
        "matrix",
        "attenuation"
    ],
    "63": [
        "increase",
        "depressed",
        "weakness",
        "dislocations",
        "contraction",
        "growth",
        "acceleration",
        "recovery",
        "deceleration",
        "improvement",
        "gradual",
        "weak",
        "increases",
        "decrease",
        "downwards",
        "shift",
        "decline",
        "erosion",
        "worsening",
        "reduction",
        "consolidation",
        "stabilization"
    ],
    "64": [
        "complains",
        "resisted",
        "opposed",
        "repeated",
        "heard",
        "retracted"
    ],
    "65": [
        "interobserver",
        "function",
        "etiologic",
        "populations",
        "progression",
        "sensitivity",
        "specificity",
        "studies",
        "findings",
        "heterogeneity",
        "noninflammatory",
        "reproduction",
        "formation",
        "initiation",
        "mechanism",
        "nonspecific",
        "outcomes",
        "extrinsic",
        "detection",
        "activation",
        "oxygen",
        "aberrant",
        "mechanisms"
    ],
    "66": [
        "larger",
        "higher",
        "less",
        "worse",
        "lower",
        "bigger",
        "better",
        "closer",
        "smaller",
        "longer"
    ],
    "67": [
        "joint",
        "compromise",
        "coordination",
        "agreement",
        "sides",
        "countries",
        "unilateral",
        "bilateral",
        "stability",
        "deal",
        "transitional",
        "union",
        "bilaterally",
        "unilaterally",
        "cessation",
        "discussions",
        "progress"
    ],
    "68": [
        "crack",
        "avoid",
        "squeeze",
        "draw",
        "dislocate",
        "claw",
        "snuff",
        "snap",
        "tear",
        "return",
        "cut",
        "straighten",
        "take",
        "give",
        "flex",
        "blow",
        "recover",
        "break",
        "heal",
        "bring",
        "repair",
        "make",
        "pull",
        "withstand",
        "improve",
        "continue",
        "resume",
        "add",
        "lift",
        "move",
        "change",
        "stabilize",
        "carry",
        "flatten",
        "turn",
        "put",
        "stand",
        "protect",
        "eliminate",
        "stay",
        "sever",
        "maintain",
        "reconnect",
        "throw",
        "reverse",
        "disappear",
        "restore",
        "infiltrate"
    ],
    "69": [
        "muscle",
        "repetitions",
        "submaximal",
        "muscles",
        "musculature",
        "endurance",
        "weight",
        "gluteus",
        "exercise",
        "hamstrings",
        "muscular",
        "sedentary",
        "posture",
        "workouts",
        "isometrics",
        "workout",
        "jogging",
        "postures",
        "exercises"
    ],
    "70": [
        "shoes",
        "sheath",
        "sheaths",
        "wear",
        "cleavage",
        "envelopes"
    ],
    "71": [
        "differences",
        "friction",
        "relationship",
        "tension",
        "separation",
        "controversy",
        "divides",
        "splintering",
        "split",
        "divided",
        "divide"
    ],
    "72": [
        "characteristics",
        "distinction",
        "human",
        "common",
        "forms",
        "continuum",
        "description",
        "sense",
        "observable",
        "eg",
        "attachment",
        "origin",
        "intrinsic",
        "variation",
        "underlying",
        "synonymously",
        "distinct",
        "relation",
        "purpose",
        "adherence",
        "visual",
        "cannot",
        "ie",
        "synonyms",
        "perspective",
        "facet",
        "distinguishable",
        "consciousness",
        "translation",
        "nature",
        "parallel",
        "exist",
        "definition",
        "examples",
        "characterization",
        "descriptive",
        "nomenclature",
        "characteristic",
        "illustration",
        "interposed",
        "interchangeably",
        "observationally",
        "descriptor",
        "pure",
        "repetition",
        "elements",
        "element"
    ],
    "73": [
        "th",
        "fifth",
        "rd",
        "fourth",
        "st",
        "second",
        "third"
    ],
    "74": [
        "effect",
        "changes",
        "pressure",
        "conditions",
        "stress",
        "options",
        "difficulties",
        "aspect",
        "difficulty",
        "risk",
        "impact",
        "factors",
        "strains",
        "strain",
        "choices",
        "effects",
        "problem",
        "ways",
        "problems",
        "scenarios",
        "tasks",
        "impacts",
        "significance",
        "limitations",
        "possibility",
        "challenges",
        "restraints",
        "factor",
        "aspects",
        "headache",
        "consequences",
        "complication",
        "challenge",
        "distraction",
        "issues"
    ],
    "75": [],
    "76": [
        "amber",
        "gardeners",
        "nourishing",
        "flakes",
        "nourishment",
        "flake"
    ],
    "77": [
        "decreased",
        "increased",
        "falling",
        "fall",
        "dropping",
        "dip",
        "climbing",
        "jump",
        "rising",
        "slide",
        "sag",
        "drop",
        "slipped",
        "gained"
    ],
    "78": [
        "present",
        "describe",
        "explain",
        "discuss",
        "rely",
        "refer",
        "replicate",
        "develop",
        "differentiate",
        "distinguish",
        "outline",
        "formulate",
        "respond",
        "treat",
        "ascertain",
        "use",
        "manipulate",
        "classify",
        "find",
        "provide",
        "create",
        "perform",
        "relate",
        "consider",
        "apply",
        "speak",
        "explore",
        "contribute",
        "assess",
        "locate",
        "follow",
        "manage",
        "mimic",
        "evaluate",
        "understand",
        "observe",
        "guide",
        "demonstrate",
        "localize"
    ],
    "79": [
        "calcaneus",
        "distal",
        "acromion",
        "deltoid",
        "posterior",
        "extremity",
        "anterior",
        "dorsal",
        "chondral",
        "medial",
        "articular",
        "patellar",
        "patellofemoral",
        "bursa",
        "glenohumeral",
        "glenoid",
        "humeral",
        "fossa",
        "arthroscopic",
        "avulsion",
        "posterolateral",
        "ligamentous",
        "proximal",
        "impingement",
        "cervical",
        "olecranon",
        "calcaneal",
        "tubercle",
        "flexor",
        "gastrocnemius",
        "carpal",
        "anatomical",
        "ulnar",
        "palmar",
        "proximally",
        "extensor",
        "anatomic",
        "sagittal",
        "acetabulum",
        "labral",
        "acetabular",
        "femoral",
        "anatomically",
        "tibial",
        "fibular",
        "vertebral",
        "meniscal",
        "menisci",
        "perineal",
        "popliteal",
        "ipsilateral",
        "arthroscopically",
        "distally",
        "periosteum",
        "cartilaginous",
        "occipital",
        "osteotomy",
        "supraspinatus",
        "subscapularis",
        "immobilization",
        "iliac",
        "posteromedial",
        "atraumatic",
        "anteriorly",
        "posteriorly",
        "synovitis",
        "metaphyseal",
        "spondylolisthesis",
        "sternal",
        "transverse",
        "ossification",
        "thoracic",
        "osseous",
        "axial",
        "hallux"
    ],
    "80": [
        "noted",
        "shows",
        "appears",
        "described",
        "recommended",
        "added",
        "indicates",
        "reported",
        "noticed",
        "shown",
        "according",
        "revealed",
        "noting",
        "referring",
        "confirm",
        "observed",
        "mention",
        "emphasized",
        "stressed",
        "stated",
        "indication",
        "reveals",
        "mentioned",
        "explained",
        "revealing",
        "confirms",
        "cited",
        "expressed",
        "indicating",
        "suggested",
        "explains",
        "indicate",
        "demonstrated",
        "theorized",
        "concludes"
    ],
    "81": [
        "level",
        "new",
        "term",
        "current",
        "releases",
        "report",
        "appearance",
        "balance",
        "central",
        "place",
        "single",
        "contact",
        "view",
        "line",
        "base",
        "results",
        "malleolus",
        "response",
        "primary",
        "reports",
        "example",
        "action",
        "chief",
        "activity",
        "source",
        "groups",
        "group",
        "epicondyle",
        "nonthrowing",
        "accompanying",
        "stage",
        "officials",
        "overstraining",
        "accounts",
        "part",
        "local",
        "release",
        "state",
        "steps",
        "sources",
        "longdistance",
        "namely",
        "work",
        "video",
        "association",
        "account"
    ],
    "82": [
        "heel",
        "bone",
        "clavicle",
        "neck",
        "leg",
        "arm",
        "humerus",
        "tendons",
        "biceps",
        "spine",
        "cyst",
        "bones",
        "finger",
        "thumb",
        "wrists",
        "forearm",
        "thigh",
        "wrist",
        "tibia",
        "femur",
        "buttocks",
        "legs",
        "hematoma",
        "scar",
        "buttock",
        "pelvis",
        "vertebra",
        "fingertip",
        "abdominal",
        "scrotum",
        "pelvic",
        "shinbone",
        "chest",
        "nipple",
        "rib",
        "ribs",
        "extremities",
        "spleen",
        "diaphragm",
        "abdomen",
        "stomach",
        "scaphoid",
        "scapula",
        "sternum",
        "ear"
    ],
    "83": [
        "forces",
        "lieutenant",
        "commander"
    ],
    "84": [
        "band",
        "pop",
        "groove",
        "bands",
        "acts",
        "disc",
        "rock",
        "classical"
    ],
    "85": [
        "impaired",
        "physiological",
        "neuromuscular",
        "locomotion",
        "sensory",
        "pathological",
        "maladaptive",
        "cognitive",
        "neuropsychological",
        "brain",
        "physiologic",
        "mental",
        "sensorimotor"
    ],
    "86": [
        "sudden",
        "following",
        "surrounding",
        "follows",
        "accompanied",
        "due",
        "result",
        "involving",
        "related",
        "resulting",
        "consequence",
        "caused",
        "outgrowth",
        "causing",
        "manifestation",
        "provoking",
        "stemming",
        "exacerbated",
        "influenced",
        "experiencing",
        "characterized",
        "symptomatic",
        "occurring",
        "induced",
        "marked",
        "followed",
        "subsequent",
        "precipitated",
        "continuation",
        "despite",
        "elicited",
        "indicative",
        "provoked",
        "necessitating",
        "faced",
        "driven"
    ],
    "87": [
        "retract"
    ],
    "88": [
        "height",
        "diameter",
        "horizontal",
        "radiating",
        "size",
        "mm",
        "bony",
        "surfaces",
        "concavity",
        "radiate",
        "length",
        "angle",
        "shaped",
        "mallet",
        "outer",
        "cm",
        "protrudes",
        "protuberance",
        "indentation",
        "contour",
        "cuboid",
        "inches",
        "elastic",
        "inward",
        "outward",
        "diagonally",
        "angles",
        "droop",
        "radius",
        "centimeters",
        "inverted",
        "protruding",
        "laterally",
        "hx",
        "axis"
    ],
    "89": [
        "corner",
        "ball",
        "seconds"
    ],
    "90": [
        "wellbeing",
        "people",
        "population",
        "adults",
        "males",
        "female",
        "individuals",
        "aged",
        "middleaged",
        "young",
        "adolescence",
        "younger",
        "adolescent",
        "male",
        "females",
        "women",
        "life",
        "sexes",
        "age",
        "preadolescent",
        "parents",
        "children",
        "ages",
        "gender",
        "men",
        "lifestyles",
        "conjoined",
        "sexual",
        "habits",
        "child",
        "living",
        "boys",
        "puberty"
    ],
    "91": [
        "incidence",
        "disease",
        "noninfectious",
        "infections",
        "syphilis",
        "infection",
        "tuberculosis",
        "mortality"
    ],
    "92": [
        "overstretching",
        "becoming",
        "removing",
        "appearing",
        "using",
        "identifying",
        "sustaining",
        "competing",
        "cutting",
        "giving",
        "reaching",
        "lifting",
        "assessing",
        "selecting",
        "integrating",
        "moving",
        "locking",
        "transferring",
        "catching",
        "finding",
        "creating",
        "keeping",
        "making",
        "preventing",
        "combining",
        "performing",
        "encouraging",
        "obtaining",
        "developing",
        "exhibiting",
        "assisting",
        "loading",
        "acting",
        "defining",
        "eliciting",
        "taking",
        "providing",
        "discussing",
        "contracting",
        "straightening",
        "considering",
        "differentiating",
        "releasing",
        "supplying",
        "supporting",
        "inducing",
        "getting",
        "interfering",
        "working",
        "minimizing",
        "anchoring"
    ],
    "93": [
        "sports",
        "athletes",
        "football",
        "gymnastics",
        "soccer",
        "netball",
        "basketball",
        "volleyball",
        "swimming",
        "athletic",
        "tennis",
        "rugby",
        "throwers",
        "hockey",
        "sport",
        "badminton",
        "squash",
        "competitions",
        "athlete",
        "coach",
        "golfers",
        "gymnastic",
        "sprinters",
        "lifters",
        "swimmer",
        "rowers",
        "rower",
        "weightlifting",
        "rowing"
    ],
    "94": [
        "unexpected",
        "traumatic",
        "painful",
        "predictable",
        "depressing",
        "gripping",
        "annoying",
        "rare",
        "excruciating",
        "intense",
        "dull",
        "unusual",
        "uncomfortable",
        "unpredictable",
        "extreme",
        "benign",
        "abrupt",
        "aggravating",
        "tenuous",
        "uncertain",
        "controversial"
    ],
    "95": [
        "compared",
        "rate",
        "median",
        "index",
        "volume",
        "margins",
        "average",
        "percent",
        "ratio",
        "segment",
        "percentage",
        "rates",
        "net",
        "margin",
        "indicator"
    ],
    "96": [
        "jumping",
        "pushing",
        "stumbling",
        "approaching",
        "walk",
        "walking",
        "broken",
        "torn",
        "standing",
        "sitting",
        "popping",
        "pulled",
        "throwing",
        "pulling",
        "running",
        "kicked",
        "stretching",
        "snapping",
        "stuck",
        "flexed",
        "slip",
        "jammed",
        "lying",
        "crossed",
        "tearing",
        "descending",
        "slipping",
        "pushed",
        "buckling",
        "thrust",
        "kicking",
        "straightened",
        "limping",
        "flexing",
        "resting",
        "hop",
        "tore",
        "ripping",
        "blows",
        "stretched",
        "rolling",
        "left",
        "pinching",
        "disappearing",
        "tilting",
        "bump",
        "swing",
        "hit",
        "hanging"
    ],
    "97": [
        "pages",
        "scan",
        "clicking",
        "click",
        "disk",
        "endpoint",
        "features",
        "text",
        "functions",
        "protocols"
    ],
    "98": [
        "shock",
        "discomfort",
        "aggravation",
        "irritation",
        "concerns",
        "complaints",
        "uneasiness",
        "preference",
        "anxiety",
        "reaction",
        "annoyance",
        "distress"
    ],
    "99": [
        "categories",
        "localization",
        "based",
        "transition",
        "distribution",
        "role",
        "continuity",
        "extensive",
        "experience",
        "contacts",
        "presence",
        "process",
        "superior",
        "disciplines",
        "functional",
        "effectiveness",
        "management",
        "understanding",
        "specific",
        "proven",
        "advanced",
        "scope",
        "research",
        "approach",
        "localized",
        "integrity",
        "internal",
        "technology",
        "mobility",
        "regional",
        "experiences",
        "flexibility",
        "knowledge",
        "multidisciplinary",
        "scale",
        "training",
        "development",
        "capability",
        "assistance",
        "emphasis",
        "support",
        "involvement",
        "diverse",
        "unique",
        "competitive",
        "techniques",
        "systems",
        "roles",
        "recognition",
        "spectrum",
        "intensive",
        "skills",
        "component",
        "tool",
        "associations",
        "evaluation"
    ]
}